-- Merging decision tree log ---
manifest
ADDED from /Users/abdelrhman/AndroidStudioProjects/EgyptPost/FingerPrint/src/main/AndroidManifest.xml:2:1-9:12
INJECTED from /Users/abdelrhman/AndroidStudioProjects/EgyptPost/FingerPrint/src/main/AndroidManifest.xml:2:1-9:12
INJECTED from /Users/abdelrhman/AndroidStudioProjects/EgyptPost/FingerPrint/src/main/AndroidManifest.xml:2:1-9:12
INJECTED from /Users/abdelrhman/AndroidStudioProjects/EgyptPost/FingerPrint/src/main/AndroidManifest.xml:2:1-9:12
INJECTED from /Users/abdelrhman/AndroidStudioProjects/EgyptPost/FingerPrint/src/main/AndroidManifest.xml:2:1-9:12
INJECTED from /Users/abdelrhman/AndroidStudioProjects/EgyptPost/FingerPrint/src/main/AndroidManifest.xml:2:1-9:12
INJECTED from /Users/abdelrhman/AndroidStudioProjects/EgyptPost/FingerPrint/src/main/AndroidManifest.xml:2:1-9:12
	package
		ADDED from /Users/abdelrhman/AndroidStudioProjects/EgyptPost/FingerPrint/src/main/AndroidManifest.xml:3:7-42
		INJECTED from /Users/abdelrhman/AndroidStudioProjects/EgyptPost/FingerPrint/src/main/AndroidManifest.xml
		INJECTED from /Users/abdelrhman/AndroidStudioProjects/EgyptPost/FingerPrint/src/main/AndroidManifest.xml
	android:label
		ADDED from /Users/abdelrhman/AndroidStudioProjects/EgyptPost/FingerPrint/src/main/AndroidManifest.xml:4:7-39
	android:versionName
		ADDED from /Users/abdelrhman/AndroidStudioProjects/EgyptPost/FingerPrint/src/main/AndroidManifest.xml:6:7-32
		INJECTED from /Users/abdelrhman/AndroidStudioProjects/EgyptPost/FingerPrint/src/main/AndroidManifest.xml
		INJECTED from /Users/abdelrhman/AndroidStudioProjects/EgyptPost/FingerPrint/src/main/AndroidManifest.xml
	xmlns:android
		ADDED from /Users/abdelrhman/AndroidStudioProjects/EgyptPost/FingerPrint/src/main/AndroidManifest.xml:2:11-69
	android:versionCode
		ADDED from /Users/abdelrhman/AndroidStudioProjects/EgyptPost/FingerPrint/src/main/AndroidManifest.xml:5:7-30
		INJECTED from /Users/abdelrhman/AndroidStudioProjects/EgyptPost/FingerPrint/src/main/AndroidManifest.xml
		INJECTED from /Users/abdelrhman/AndroidStudioProjects/EgyptPost/FingerPrint/src/main/AndroidManifest.xml
uses-sdk
INJECTED from /Users/abdelrhman/AndroidStudioProjects/EgyptPost/FingerPrint/src/main/AndroidManifest.xml reason: use-sdk injection requested
INJECTED from /Users/abdelrhman/AndroidStudioProjects/EgyptPost/FingerPrint/src/main/AndroidManifest.xml
INJECTED from /Users/abdelrhman/AndroidStudioProjects/EgyptPost/FingerPrint/src/main/AndroidManifest.xml
INJECTED from /Users/abdelrhman/AndroidStudioProjects/EgyptPost/FingerPrint/src/main/AndroidManifest.xml
INJECTED from /Users/abdelrhman/AndroidStudioProjects/EgyptPost/FingerPrint/src/main/AndroidManifest.xml
	android:targetSdkVersion
		INJECTED from /Users/abdelrhman/AndroidStudioProjects/EgyptPost/FingerPrint/src/main/AndroidManifest.xml
		ADDED from /Users/abdelrhman/AndroidStudioProjects/EgyptPost/FingerPrint/src/main/AndroidManifest.xml
		INJECTED from /Users/abdelrhman/AndroidStudioProjects/EgyptPost/FingerPrint/src/main/AndroidManifest.xml
	android:minSdkVersion
		INJECTED from /Users/abdelrhman/AndroidStudioProjects/EgyptPost/FingerPrint/src/main/AndroidManifest.xml
		ADDED from /Users/abdelrhman/AndroidStudioProjects/EgyptPost/FingerPrint/src/main/AndroidManifest.xml
		INJECTED from /Users/abdelrhman/AndroidStudioProjects/EgyptPost/FingerPrint/src/main/AndroidManifest.xml
